\relax 
\providecommand*\new@tpo@label[2]{}
\citation{Foulkes2007}
\citation{Macaulay1978}
\citation{Meyerhoff2006}
\citation{Dickson2017}
\citation{Labov1966}
\citation{Labov1990}
\citation{Baranowski2017}
\citation{Watt2000}
\citation{Watt2002}
\citation{Stuart-Smith2007}
\citation{Lawson2011}
\citation{Foulkes2007}
\citation{Foulkes2007}
\citation{Milroys1985}
\citation{Wells1982b}
\citation{Fabricius2000}
\citation{Hannisdal2006}
\citation{Hinton2015}
\citation{Bjelakovic2016}
\citation{Jones1917}
\citation{Trudgill2002}
\citation{Przedlacka2015}
\citation{Wolfram1998}
\citation{Trudgill2002}
\citation{Wells1982b}
\citation{Fabricius2002c}
\citation{Britain2017}
\citation{Kerswill2007}
\@writefile{toc}{\contentsline {section}{\numberline {0.1}Social Class}{2}}
\@writefile{toc}{\contentsline {subsection}{\numberline {0.1.1}Social Class and Language}{2}}
\newlabel{todopage:1}{{1}{2}{Social Class and Language}{}{}}
\newlabel{todopage:2}{{2}{2}{Social Class and Language}{}{}}
\@writefile{toc}{\contentsline {subsubsection}{\nonumberline Speech Communities}{2}}
\citation{Wells1982a}
\citation{Wells1982a}
\citation{Wells1982a}
\citation{Wells1982a}
\citation{Wells1982a}
\@writefile{toc}{\contentsline {subsection}{\numberline {0.1.2}An aside - speaker mobility}{3}}
\@writefile{toc}{\contentsline {section}{\numberline {0.2}Received Pronunciation}{3}}
\@writefile{toc}{\contentsline {section}{\numberline {0.3}\textsc  {Foot}$\sim $\textsc  {Strut} Distinction}{3}}
\newlabel{FS}{{0.3}{3}{\scs {Foot}$\sim $\scs {Strut} Distinction}{}{}}
\@writefile{toc}{\contentsline {subsection}{\numberline {0.3.1}\textsc  {Foot} Vowel}{3}}
\newlabel{foot}{{0.3.1}{3}{\scs {Foot} Vowel}{}{}}
\@writefile{toc}{\contentsline {subsection}{\numberline {0.3.2}\textsc  {Strut} Vowel}{3}}
\newlabel{strut}{{0.3.2}{3}{\scs {Strut} Vowel}{}{}}
\citation{Wells1982a}
\citation{Wells1982a}
\citation{Wells1982b}
\citation{Wells1982b}
\citation{BaranowskiTurton2017}
\citation{Beal2013}
\@writefile{toc}{\contentsline {subsection}{\numberline {0.3.3}\textsc  {Foot}$\sim $\textsc  {Strut} Split}{4}}
\newlabel{FSsplit}{{0.3.3}{4}{\scs {Foot}$\sim $\scs {Strut} Split}{}{}}
\@writefile{lof}{\contentsline {figure}{\numberline {0.1}{\ignorespaces \foot $\sim $\strutt split development \cite [p. 198]{Wells1982a} }}{4}}
\newlabel{FSsplitimg}{{0.1}{4}{\protect \foot $\sim $\protect \strutt split development \protect \cite [p. 198]{Wells1982a}}{}{}}
\citation{Wells1982a}
\citation{Wells1982a}
\citation{Wells1982a}
\@writefile{toc}{\contentsline {subsection}{\numberline {0.3.4}Present day situation of the \textsc  {Foot}$\sim $\textsc  {Strut} Distinction}{5}}
\newlabel{todopage:3}{{3}{5}{Present day situation of the \scs {Foot}$\sim $\scs {Strut} Distinction}{}{}}
\newlabel{todopage:4}{{4}{5}{Present day situation of the \scs {Foot}$\sim $\scs {Strut} Distinction}{}{}}
\@writefile{toc}{\contentsline {section}{\numberline {0.4}\textsc  {Trap}$\sim $\textsc  {Bath} Distinction}{5}}
\newlabel{TB}{{0.4}{5}{\scs {Trap}$\sim $\scs {Bath} Distinction}{}{}}
\citation{Wells1982a}
\citation{Wells1982a}
\citation{BBS2010}
\citation{Wells1982a}
\citation{BBS2010}
\citation{BBS2010}
\citation{Wells1982b}
\citation{Wells1982a}
\citation{Wells1982a}
\citation{Gupta2005,Dobson1968}
\citation{Gupta2005}
\@writefile{toc}{\contentsline {subsection}{\numberline {0.4.1}\textsc  {Trap}}{6}}
\@writefile{toc}{\contentsline {subsection}{\numberline {0.4.2}\textsc  {Bath}}{6}}
\@writefile{toc}{\contentsline {subsection}{\numberline {0.4.3}The \textsc  {Trap}$\sim $\textsc  {Bath} Split}{6}}
\newlabel{TBsplit}{{0.4.3}{6}{The \scs {Trap}$\sim $\scs {Bath} Split}{}{}}
\@writefile{toc}{\contentsline {subsection}{\numberline {0.4.4}Present day situation of the \textsc  {Trap}$\sim $\textsc  {Bath} Distinction}{7}}
\newlabel{todopage:5}{{5}{7}{Present day situation of the \scs {Trap}$\sim $\scs {Bath} Distinction}{}{}}
\@writefile{lof}{\contentsline {figure}{\numberline {0.2}{\ignorespaces Isoglosses for some \bath words \cite [p. 355]{Wells1982a})}}{9}}
\newlabel{TBglossimg}{{0.2}{9}{Isoglosses for some \protect \bath words \protect \cite [p. 355]{Wells1982a})}{}{}}
\citation{Dickson2017}
\newlabel{todolbl:1}{{1}{10}{\todoname }{}{}}
\newlabel{todolbl:2}{{2}{10}{\todoname }{}{}}
\newlabel{todolbl:3}{{3}{10}{\todoname }{}{}}
\newlabel{todolbl:4}{{4}{10}{\todoname }{}{}}
\newlabel{todolbl:5}{{5}{10}{\todoname }{}{}}
\bibstyle{agsm}
\bibdata{/Users/Caitlin/OneDrive/Documents/Documents/bibFiles/library}
\harvardcite{Baranowski2017}{Baranowski}{Baranowski}{2017}
\harvardcite{BaranowskiTurton2017}{Baranowski \harvardand \ Turton}{Baranowski \harvardand \ Turton}{2017}
\harvardcite{BBS2010}{Barber, Beal \harvardand \ Shaw}{Barber et~al.}{2010}
\harvardcite{Beal2013}{Beal}{Beal}{2012}
\harvardcite{Bjelakovic2016}{Bjelakovi{\'{c}}}{Bjelakovi{\'{c}}}{2016}
\harvardcite{Britain2017}{Britain}{Britain}{2017}
\harvardcite{Dickson2017}{Dickson \harvardand \ Hall-Lew}{Dickson \harvardand \ Hall-Lew}{2017}
\harvardcite{Dobson1968}{Dobson}{Dobson}{1968}
\harvardcite{Fabricius2000}{Fabricius}{Fabricius}{2000}
\harvardcite{Fabricius2002c}{Fabricius}{Fabricius}{2002}
\@writefile{toc}{\contentsline {chapter}{\nonumberline Bibliography}{11}}
\@writefile{lof}{\addvspace {10\p@ }}
\@writefile{lot}{\addvspace {10\p@ }}
\harvardcite{Foulkes2007}{Foulkes \harvardand \ Doherty}{Foulkes \harvardand \ Doherty}{2007}
\harvardcite{Gupta2005}{{Fraser Gupta}}{{Fraser Gupta}}{2005}
\harvardcite{Hannisdal2006}{Hannisdal}{Hannisdal}{2006}
\harvardcite{Hinton2015}{Hinton}{Hinton}{2015}
\harvardcite{Jones1917}{Jones}{Jones}{1917}
\harvardcite{Kerswill2007}{Kerswill}{Kerswill}{2007}
\harvardcite{Labov1966}{Labov}{Labov}{1966}
\harvardcite{Labov1990}{Labov}{Labov}{1990}
\harvardcite{Lawson2011}{Lawson, Scobbie \harvardand \Stuart-Smith}{Lawson et~al.}{2011}
\harvardcite{Macaulay1978}{Macaulay}{Macaulay}{1978}
\harvardcite{Meyerhoff2006}{Meyerhoff}{Meyerhoff}{2006}
\harvardcite{Milroys1985}{Milroy \harvardand \ Milroy}{Milroy \harvardand \ Milroy}{1985}
\harvardcite{Przedlacka2015}{Przedlacka \harvardand \ Baghai-Ravary}{Przedlacka \harvardand \ Baghai-Ravary}{2015}
\harvardcite{Stuart-Smith2007}{Stuart-Smith, Timmins \harvardand \Tweedie}{Stuart-Smith et~al.}{2007}
\harvardcite{Trudgill2002}{Trudgill}{Trudgill}{2002}
\harvardcite{Watt2002}{Watt}{Watt}{2002}
\harvardcite{Watt2000}{Watt}{Watt}{2000}
\harvardcite{Wells1982a}{Wells}{Wells}{1982{\em a}}
\harvardcite{Wells1982b}{Wells}{Wells}{1982{\em b}}
\harvardcite{Wolfram1998}{Wolfram \harvardand \ Schillings-Estes}{Wolfram \harvardand \ Schillings-Estes}{1998}
