\relax 
\providecommand*\new@tpo@label[2]{}
\@writefile{toc}{\contentsline {chapter}{\numberline {1}Abstract}{2}}
\@writefile{lof}{\addvspace {10\p@ }}
\@writefile{lot}{\addvspace {10\p@ }}
\citation{Macaulay1988}
\citation{Macaulay1988}
\citation{Fabricius2002c}
\citation{Corrigan2012}
\citation{Wells1982b}
\@writefile{toc}{\contentsline {chapter}{\numberline {2}Introduction}{4}}
\@writefile{lof}{\addvspace {10\p@ }}
\@writefile{lot}{\addvspace {10\p@ }}
\newlabel{Intro}{{2}{4}{Introduction}{}{}}
\citation{Reid1981}
\citation{Meyerhoff2006}
\citation{Mugglestone2003}
\citation{Wells1982a,Reid1981}
\citation{Reid1981}
\citation{Wells1982a}
\citation{(}
\citation{Wells1982a}
\citation{Foulkes2007}
\citation{Foulkes2007}
\@writefile{toc}{\contentsline {chapter}{\numberline {3}Literature Review}{5}}
\@writefile{lof}{\addvspace {10\p@ }}
\@writefile{lot}{\addvspace {10\p@ }}
\newlabel{LitRev}{{3}{5}{Literature Review}{}{}}
\@writefile{toc}{\contentsline {section}{\numberline {3.1}Social Class}{5}}
\@writefile{toc}{\contentsline {subsection}{\numberline {3.1.1}Social Class and Language}{5}}
\citation{Foulkes2007}
\citation{Macaulay1978}
\citation{Meyerhoff2006}
\citation{Dickson2017}
\citation{Labov1966}
\citation{Labov1990}
\citation{Baranowski2017}
\citation{Watt2000}
\citation{Watt2002}
\citation{Stuart-Smith2007}
\citation{Lawson2011}
\citation{Foulkes2007}
\citation{Foulkes2007}
\citation{Milroys1985}
\citation{Reid}
\newlabel{todopage:1}{{1}{6}{Social Class and Language}{}{}}
\newlabel{todopage:2}{{2}{6}{Social Class and Language}{}{}}
\@writefile{toc}{\contentsline {subsubsection}{\nonumberline Speech Communities}{6}}
\citation{Wells1982b}
\citation{Fabricius2000}
\citation{Hannisdal2006}
\citation{Hinton2015}
\citation{Bjelakovic2016}
\citation{Jones1917}
\citation{Trudgill2002}
\citation{Przedlacka2015}
\citation{Wolfram1998}
\citation{Trudgill2002}
\citation{Wells1982b}
\citation{Fabricius2002c}
\citation{Britain2017}
\citation{Kerswill2007}
\citation{Wells1982a}
\citation{Wells1982a}
\citation{Wells1982a}
\@writefile{toc}{\contentsline {subsection}{\numberline {3.1.2}An aside - speaker mobility}{7}}
\@writefile{toc}{\contentsline {subsection}{\numberline {3.1.3}Social Class and Education}{7}}
\@writefile{toc}{\contentsline {section}{\numberline {3.2}Received Pronunciation}{7}}
\@writefile{toc}{\contentsline {section}{\numberline {3.3}\textsc  {Foot}$\sim $\textsc  {Strut} Distinction}{7}}
\newlabel{FS}{{3.3}{7}{\scs {Foot}$\sim $\scs {Strut} Distinction}{}{}}
\@writefile{toc}{\contentsline {subsection}{\numberline {3.3.1}\textsc  {Foot} Vowel}{7}}
\newlabel{foot}{{3.3.1}{7}{\scs {Foot} Vowel}{}{}}
\@writefile{toc}{\contentsline {subsection}{\numberline {3.3.2}\textsc  {Strut} Vowel}{7}}
\newlabel{strut}{{3.3.2}{7}{\scs {Strut} Vowel}{}{}}
\citation{Wells1982a}
\citation{Wells1982a}
\citation{Wells1982a}
\citation{Wells1982a}
\citation{Wells1982b}
\citation{Wells1982b}
\citation{BaranowskiTurton2017}
\citation{Beal2013}
\@writefile{toc}{\contentsline {subsection}{\numberline {3.3.3}\textsc  {Foot}$\sim $\textsc  {Strut} Split}{8}}
\newlabel{FSsplit}{{3.3.3}{8}{\scs {Foot}$\sim $\scs {Strut} Split}{}{}}
\@writefile{toc}{\contentsline {subsection}{\numberline {3.3.4}Present day situation of the \textsc  {Foot}$\sim $\textsc  {Strut} Distinction}{8}}
\newlabel{todopage:3}{{3}{8}{Present day situation of the \scs {Foot}$\sim $\scs {Strut} Distinction}{}{}}
\newlabel{todopage:4}{{4}{8}{Present day situation of the \scs {Foot}$\sim $\scs {Strut} Distinction}{}{}}
\@writefile{lof}{\contentsline {figure}{\numberline {3.1}{\ignorespaces \foot $\sim $\strutt split development \cite [p. 198]{Wells1982a} }}{9}}
\newlabel{FSsplitimg}{{3.1}{9}{\protect \foot $\sim $\protect \strutt split development \protect \cite [p. 198]{Wells1982a}}{}{}}
\citation{Wells1982a}
\citation{Wells1982a}
\citation{Wells1982a}
\citation{Wells1982a}
\citation{Wells1982a}
\citation{BBS2010}
\citation{Wells1982a}
\citation{BBS2010}
\@writefile{toc}{\contentsline {section}{\numberline {3.4}\textsc  {Trap}$\sim $\textsc  {Bath} Distinction}{10}}
\newlabel{TB}{{3.4}{10}{\scs {Trap}$\sim $\scs {Bath} Distinction}{}{}}
\@writefile{toc}{\contentsline {subsection}{\numberline {3.4.1}\textsc  {Trap}}{10}}
\@writefile{toc}{\contentsline {subsection}{\numberline {3.4.2}\textsc  {Bath}}{10}}
\@writefile{toc}{\contentsline {subsection}{\numberline {3.4.3}The \textsc  {Trap}$\sim $\textsc  {Bath} Split}{10}}
\newlabel{TBsplit}{{3.4.3}{10}{The \scs {Trap}$\sim $\scs {Bath} Split}{}{}}
\citation{BBS2010}
\citation{Wells1982b}
\citation{Wells1982a}
\citation{Wells1982a}
\citation{Gupta2005,Dobson1968}
\citation{Gupta2005}
\@writefile{toc}{\contentsline {subsection}{\numberline {3.4.4}Present day situation of the \textsc  {Trap}$\sim $\textsc  {Bath} Distinction}{11}}
\newlabel{todopage:5}{{5}{11}{Present day situation of the \scs {Trap}$\sim $\scs {Bath} Distinction}{}{}}
\@writefile{lof}{\contentsline {figure}{\numberline {3.2}{\ignorespaces Isoglosses for some \bath words \cite [p. 355]{Wells1982a})}}{13}}
\newlabel{TBglossimg}{{3.2}{13}{Isoglosses for some \protect \bath words \protect \cite [p. 355]{Wells1982a})}{}{}}
\citation{Dickson2017}
\newlabel{todolbl:1}{{1}{14}{\todoname }{}{}}
\newlabel{todolbl:2}{{2}{14}{\todoname }{}{}}
\newlabel{todolbl:3}{{3}{14}{\todoname }{}{}}
\newlabel{todolbl:4}{{4}{14}{\todoname }{}{}}
\newlabel{todolbl:5}{{5}{14}{\todoname }{}{}}
\@writefile{toc}{\contentsline {chapter}{\numberline {4}Methodology \& Method}{15}}
\@writefile{lof}{\addvspace {10\p@ }}
\@writefile{lot}{\addvspace {10\p@ }}
\newlabel{Meth}{{4}{15}{Methodology \& Method}{}{}}
\@writefile{toc}{\contentsline {section}{\numberline {4.1}Interview design}{15}}
\@writefile{toc}{\contentsline {section}{\numberline {4.2}Data extraction}{15}}
\@writefile{toc}{\contentsline {section}{\numberline {4.3}title}{15}}
\citation{Dickson2017}
\newlabel{todolbl:1}{{1}{16}{\todoname }{}{}}
\newlabel{todolbl:2}{{2}{16}{\todoname }{}{}}
\newlabel{todolbl:3}{{3}{16}{\todoname }{}{}}
\newlabel{todolbl:4}{{4}{16}{\todoname }{}{}}
\newlabel{todolbl:5}{{5}{16}{\todoname }{}{}}
\@writefile{toc}{\contentsline {chapter}{\numberline {5}Data Analysis \& Discussion}{17}}
\@writefile{lof}{\addvspace {10\p@ }}
\@writefile{lot}{\addvspace {10\p@ }}
\bibstyle{agsm}
\bibdata{/Users/Caitlin/OneDrive/Documents/Documents/bibFiles/library}
\@writefile{toc}{\contentsline {chapter}{\numberline {6}Conclusion}{18}}
\@writefile{lof}{\addvspace {10\p@ }}
\@writefile{lot}{\addvspace {10\p@ }}
\newlabel{Conc}{{6}{18}{Conclusion}{}{}}
\harvardcite{Baranowski2017}{Baranowski}{Baranowski}{2017}
\harvardcite{BaranowskiTurton2017}{Baranowski \harvardand \ Turton}{Baranowski \harvardand \ Turton}{2017}
\harvardcite{BBS2010}{Barber, Beal \harvardand \ Shaw}{Barber et~al.}{2010}
\harvardcite{Beal2013}{Beal}{Beal}{2012}
\harvardcite{Bjelakovic2016}{Bjelakovi{\'{c}}}{Bjelakovi{\'{c}}}{2016}
\harvardcite{Britain2017}{Britain}{Britain}{2017}
\harvardcite{Corrigan2012}{Corrigan, Buchstaller, Mearns \harvardand \Moisl}{Corrigan et~al.}{2012}
\harvardcite{Dickson2017}{Dickson \harvardand \ Hall-Lew}{Dickson \harvardand \ Hall-Lew}{2017}
\harvardcite{Dobson1968}{Dobson}{Dobson}{1968}
\harvardcite{Fabricius2000}{Fabricius}{Fabricius}{2000}
\harvardcite{Fabricius2002c}{Fabricius}{Fabricius}{2002}
\harvardcite{Foulkes2007}{Foulkes \harvardand \ Doherty}{Foulkes \harvardand \ Doherty}{2007}
\@writefile{toc}{\contentsline {chapter}{\nonumberline Bibliography}{19}}
\@writefile{lof}{\addvspace {10\p@ }}
\@writefile{lot}{\addvspace {10\p@ }}
\harvardcite{Gupta2005}{{Fraser Gupta}}{{Fraser Gupta}}{2005}
\harvardcite{Hannisdal2006}{Hannisdal}{Hannisdal}{2006}
\harvardcite{Hinton2015}{Hinton}{Hinton}{2015}
\harvardcite{Jones1917}{Jones}{Jones}{1917}
\harvardcite{Kerswill2007}{Kerswill}{Kerswill}{2007}
\harvardcite{Labov1966}{Labov}{Labov}{1966}
\harvardcite{Labov1990}{Labov}{Labov}{1990}
\harvardcite{Lawson2011}{Lawson, Scobbie \harvardand \Stuart-Smith}{Lawson et~al.}{2011}
\harvardcite{Macaulay1988}{Macaulay}{Macaulay}{1988}
\harvardcite{Macaulay1978}{Macaulay}{Macaulay}{1978}
\harvardcite{Meyerhoff2006}{Meyerhoff}{Meyerhoff}{2006}
\harvardcite{Milroys1985}{Milroy \harvardand \ Milroy}{Milroy \harvardand \ Milroy}{1985}
\harvardcite{Mugglestone2003}{Mugglestone}{Mugglestone}{2003}
\harvardcite{Przedlacka2015}{Przedlacka \harvardand \ Baghai-Ravary}{Przedlacka \harvardand \ Baghai-Ravary}{2015}
\harvardcite{Reid1981}{Reid}{Reid}{1981}
\harvardcite{Stuart-Smith2007}{Stuart-Smith, Timmins \harvardand \Tweedie}{Stuart-Smith et~al.}{2007}
\harvardcite{Trudgill2002}{Trudgill}{Trudgill}{2002}
\harvardcite{Watt2002}{Watt}{Watt}{2002}
\harvardcite{Watt2000}{Watt}{Watt}{2000}
\harvardcite{Wells1982a}{Wells}{Wells}{1982{\em a}}
\harvardcite{Wells1982b}{Wells}{Wells}{1982{\em b}}
\harvardcite{Wolfram1998}{Wolfram \harvardand \ Schillings-Estes}{Wolfram \harvardand \ Schillings-Estes}{1998}
\@writefile{toc}{\contentsline {chapter}{\numberline {A}Acknowledgements}{22}}
\@writefile{lof}{\addvspace {10\p@ }}
\@writefile{lot}{\addvspace {10\p@ }}
\@writefile{toc}{\contentsline {chapter}{\numberline {B}Interview Schedule}{23}}
\@writefile{lof}{\addvspace {10\p@ }}
\@writefile{lot}{\addvspace {10\p@ }}
\@writefile{toc}{\contentsline {chapter}{\numberline {C}Word List \& Minimal Pairs list}{24}}
\@writefile{lof}{\addvspace {10\p@ }}
\@writefile{lot}{\addvspace {10\p@ }}
\@writefile{toc}{\contentsline {chapter}{\numberline {D}Data}{25}}
\@writefile{lof}{\addvspace {10\p@ }}
\@writefile{lot}{\addvspace {10\p@ }}
\global\csname @altsecnumformattrue\endcsname
\global\@namedef{scr@dte@chapter@lastmaxnumwidth}{15.89992pt}
\global\@namedef{scr@dte@section@lastmaxnumwidth}{24.64789pt}
