\relax 
\providecommand*\new@tpo@label[2]{}
\citation{Wells1982b}
\citation{Fabricius2000}
\citation{Hannisdal2006}
\citation{Hinton2015}
\citation{Bjelakovic2016}
\citation{Jones1917}
\citation{Trudgill2002}
\citation{Przedlacka2015}
\citation{Wolfram1998}
\citation{Trudgill2002}
\citation{Wells1982b}
\citation{Fabricius2002c}
\citation{Britain2017}
\citation{Gimson1994}
\citation{Wells1982b}
\citation{Hinton2015}
\citation{Hughes2012}
\citation{Hannisdal2006}
\citation{Fabricius2000}
\citation{Strycharczuk2016}
\@writefile{toc}{\contentsline {section}{\numberline {0.1}Received Pronunciation}{2}}
\@writefile{toc}{\contentsline {section}{\numberline {0.2}The \textsc  {Goat} Vowel}{2}}
\@writefile{toc}{\contentsline {subsection}{\numberline {0.2.1}\textsc  {Goat} in RP}{2}}
\@writefile{toc}{\contentsline {subsection}{\numberline {0.2.2}\textsc  {Goat} fronting}{2}}
\@writefile{toc}{\contentsline {section}{\numberline {0.3}\textsc  {Foot}\textasciitilde \textsc  {Strut} Distinction}{2}}
\@writefile{toc}{\contentsline {section}{\numberline {0.4}\textsc  {Trap}\textasciitilde \textsc  {Bath}}{2}}
\@writefile{toc}{\contentsline {section}{\numberline {0.5}Phonetics and Morphology in Sound Change / arcitecture of the grammar}{2}}
\@writefile{toc}{\contentsline {subsection}{\numberline {0.5.1}The Life-Cycle of Phonological Processes}{3}}
\@writefile{toc}{\contentsline {subsection}{\numberline {0.5.2}Evidence for a gradual effect of morphology on phonetics in a change in progress}{3}}
\@writefile{toc}{\contentsline {section}{\numberline {0.6}title}{3}}
\bibstyle{agsm}
\bibdata{/Users/Caitlin/OneDrive/Documents/Documents/bibFiles/library}
\harvardcite{Bjelakovic2016}{Bjelakovi{\'{c}}}{Bjelakovi{\'{c}}}{2016}
\harvardcite{Britain2017}{Britain}{Britain}{2017}
\harvardcite{Fabricius2000}{Fabricius}{Fabricius}{2000}
\harvardcite{Fabricius2002c}{Fabricius}{Fabricius}{2002}
\harvardcite{Gimson1994}{Gimson \harvardand \ Cruttenden}{Gimson \harvardand \ Cruttenden}{1994}
\harvardcite{Hannisdal2006}{Hannisdal}{Hannisdal}{2006}
\harvardcite{Hinton2015}{Hinton}{Hinton}{2015}
\harvardcite{Hughes2012}{Hughes, Trudgill \harvardand \Watt}{Hughes et~al.}{2012}
\harvardcite{Jones1917}{Jones}{Jones}{1917}
\harvardcite{Przedlacka2015}{Przedlacka \harvardand \ Baghai-Ravary}{Przedlacka \harvardand \ Baghai-Ravary}{2015}
\harvardcite{Strycharczuk2016}{Strycharczuk \harvardand \ Scobbie}{Strycharczuk \harvardand \ Scobbie}{2016}
\@writefile{toc}{\contentsline {chapter}{\nonumberline Bibliography}{4}}
\@writefile{lof}{\addvspace {10\p@ }}
\@writefile{lot}{\addvspace {10\p@ }}
\harvardcite{Trudgill2002}{Trudgill}{Trudgill}{2002}
\harvardcite{Wells1982b}{Wells}{Wells}{1982}
\harvardcite{Wolfram1998}{Wolfram \harvardand \ Schillings-Estes}{Wolfram \harvardand \ Schillings-Estes}{1998}
