\relax 
\providecommand*\new@tpo@label[2]{}
\citation{Wells1982b}
\citation{Trudgill2002}
\citation{Fabricius2000,Fabricius2002a,Fabricius2002b,Fabricius2002c}
\citation{Britain2017}
\citation{Wolfram1998}
\citation{Halfacre2017}
\citation{Bermudez-Otero1999,Bermudez-Otero2011,Bermudez-Otero2015}
\citation{Strycharczuk2016}
\citation{Tagliamonte2006}
\@writefile{toc}{\contentsline {section}{\numberline {1}Introduction}{1}}
\newlabel{PropIntro}{{1}{1}{Introduction}{}{}}
\@writefile{toc}{\contentsline {section}{\numberline {2}Research Questions \& Rationale}{1}}
\newlabel{PropRQs}{{2}{1}{Research Questions \& Rationale}{}{}}
\@writefile{toc}{\contentsline {section}{\numberline {3}Data \& Methodology}{1}}
\newlabel{PropMethod}{{3}{1}{Data \& Methodology}{}{}}
\citation{Baranowski2017}
\citation{Baranowski2017}
\citation{NSSEC2001}
\citation{Savage2013}
\citation{Baranowski2017}
\citation{Fabricius2000,Jones1917}
\citation{Wells1982a}
\citation{Wells1982a}
\citation{Praat}
\citation{FAVE}
\citation{Mackenzie2013}
\citation{Bailey2016}
\citation{Baayen2016}
\citation{Soskuthy2017}
\@writefile{lof}{\contentsline {figure}{\numberline {1}{\ignorespaces Relation between social and regional accents in England (adapted from \cite {Wells1982a})}}{3}}
\newlabel{triangle}{{1}{3}{Relation between social and regional accents in England (adapted from \protect \cite {Wells1982a})}{}{}}
\@writefile{toc}{\contentsline {section}{\numberline {4}Conclusion}{3}}
\newlabel{PropConc}{{4}{3}{Conclusion}{}{}}
\bibstyle{agsm}
\bibdata{/Users/Caitlin/OneDrive/Documents/Documents/bibFiles/library}
